How To Use • colrectr
…
      how-to-use.Rmd

Workflow

Load colrectr

library(colrectr)

Read Excel file specifying path and sheet.

colrect(path = "../inst/extdata/clustered.xlsx",
        sheet = "降水量",
        col = 3)
#> # A tibble: 107 x 29
#>    ...1  ...2  ...3  ...4  ...5  ...6  ...7  ...8  ...9  ...10 ...11 ...12 ...13
#>    <chr> <chr> <chr> <chr> <chr> <chr> <chr> <chr> <chr> <chr> <chr> <chr> <chr>
#>  1 データ… 降水量… <NA>  <NA>  <NA>  <NA>  <NA>  <NA>  <NA>  <NA>  <NA>  <NA>  <NA> 
#>  2 市町村… ほげ市… <NA>  <NA>  <NA>  <NA>  <NA>  <NA>  <NA>  <NA>  <NA>  <NA>  <NA> 
#>  3 県    ふが県… <NA>  <NA>  <NA>  <NA>  <NA>  <NA>  <NA>  <NA>  <NA>  <NA>  <NA> 
#>  4 備考  めも  <NA>  <NA>  <NA>  <NA>  <NA>  <NA>  <NA>  <NA>  <NA>  <NA>  <NA> 
#>  5 年／月… 1月   2月   3月   4月   5月   6月   7月   8月   9月   10月  11月  12月 
#>  6 1981  1     2     3     4     5     6     7     8     9     10    11    12   
#>  7 1982  13    14    15    16    17    18    19    20    21    22    23    24   
#>  8 1983  25    26    27    28    29    30    31    32    33    34    35    36   
#>  9 1984  37    38    39    40    41    42    43    44    45    46    47    48   
#> 10 1985  49    50    51    52    53    54    55    56    57    58    59    60   
#> # … with 97 more rows, and 16 more variables: ...14 <chr>, ...15 <chr>,
#> #   ...16 <chr>, ...17 <chr>, ...18 <chr>, ...19 <chr>, ...20 <chr>,
#> #   ...21 <chr>, ...22 <chr>, ...23 <chr>, ...24 <chr>, ...25 <chr>,
#> #   ...26 <chr>, ...27 <chr>, ...28 <chr>, ...29 <chr>
…
